Find the best locations for facilities using maxcovr
…
???

---

# wifi in Brisbane

.large[

```r
wifi
```

```
## # A tibble: 242 x 6
##      lat  long wifi_hotspot_name  address      suburb site 
##    <dbl> <dbl> <chr>              <chr>        <chr>  <chr>
##  1 -27.5  153. Annerley Library … 450 Ipswich… Anner… Libr…
##  2 -27.4  153. Ashgrove Library … 87 Amarina … Ashgr… Libr…
##  3 -27.5  153. Brisbane Square L… Brisbane Sq… Brisb… Libr…
##  4 -27.5  153. Bulimba Library W… Corner Ridi… Balmo… Libr…
##  5 -27.5  153. Carina Library Wi… Corner Mayf… Carina Libr…
##  6 -27.5  153. Fairfield Library… Fairfield G… Fairf… Libr…
##  7 -27.4  153. Hamilton Library … Corner Race… Hamil… Libr…
##  8 -27.5  153. Holland Park Libr… 81 Seville … Holla… Libr…
##  9 -27.5  153. Indooroopilly Lib… Indrooroopi… Indoo… Libr…
## 10 -27.5  153. Mt Coot-tha Botan… Administrat… Mount… Libr…
## # ... with 232 more rows
```
…
---

# Who do we want to cover?

```r
stops
```

```
## # A tibble: 2,468 x 15
##      lat  long hastus_id translink_id description          
##    <dbl> <dbl>     <int>        <int> <chr>                
##  1 -27.5  153.         1       306549 Herschel St app Nth …
##  2 -27.5  153.         2       306550 Herschel St app Nth …
##  3 -27.5  153.         3       306547 Turbot St F/S Albert…
##  4 -27.5  153.         4       306512 Turbot St F/S Wharf …
##  5 -27.5  153.         5       306524 Ann Street F/S Orien…
##  6 -27.5  153.         6       306558 Ann St app Wharf St …
##  7 -27.5  153.         7       306559 Ann St at Anzac Squa…
##  8 -27.5  153.         8       300073 Ann St app Edward St…
##  9 -27.5  153.         9       306560 Ann St app KGS (Stop…
## 10 -27.5  153.        10       306561 Ann St at KGS (Stop …
## # ... with 2,458 more rows, and 10 more variables:
## #   street_name <chr>, nearest_cross_street <chr>,
## #   suburb <chr>, bus_stop_type <chr>,
## #   tactile_ground_surf_indicat_y_n <chr>,
## #   boarding_point <chr>, road_gradient <chr>,
## #   cross_fall <chr>, date_of_last_audit <chr>,
## #   btn_both <lgl>
```
…
- photo of Brisbane bus stop

---

# Where to place the wifi?

.large[

```r
property
```

```
## # A tibble: 40,874 x 7
##      lat  long street_name street_type
##    <dbl> <dbl> <chr>       <chr>      
##  1 -27.4  153. ABBOTSFORD  Road       
##  2 -27.4  153. CINTRA      Road       
##  3 -27.4  153. ABBOTSFORD  Road       
##  4 -27.4  153. ABBOTSFORD  Road       
##  5 -27.4  153. ABBOTSFORD  Road       
##  6 -27.4  153. ABBOTSFORD  Road       
##  7 -27.4  153. ABBOTSFORD  Road       
##  8 -27.4  153. ABBOTSFORD  Road       
##  9 -27.4  153. ABBOTSFORD  Road       
## 10 -27.4  153. ABBOTSFORD  Road       
## # ... with 40,864 more rows, and 3 more
## #   variables: suburb <chr>,
## #   postcode <int>, ward_name <chr>
```
…
---

# Users were affected?

```r
mc_100$user_affected
```

```
## [[1]]
## # A tibble: 449 x 19
##    user_id user_chosen facility_id
##      <dbl>       <dbl>       <dbl>
##  1       5           1         114
##  2       6           1          NA
##  3       7           1          NA
##  4       8           1          NA
##  5       9           1          NA
##  6      17           1          NA
##  7      18           1          NA
##  8      20           1          NA
##  9      22           1          NA
## 10      26           1          NA
## # ... with 439 more rows, and 16 more
## #   variables: distance <dbl>,
## #   lat <dbl>, long <dbl>,
## #   hastus_id <int>,
## #   translink_id <int>,
## #   description <chr>,
## #   street_name <chr>,
## #   nearest_cross_street <chr>,
## #   suburb <chr>, bus_stop_type <chr>,
…
---

# More user info?

```r
mc_100$augmented_users
```

```
## [[1]]
## # A tibble: 2,468 x 22
##    to_id nearest_id distance lat_to
##    <dbl>      <dbl>    <dbl>  <dbl>
##  1     1        142    31.8   -27.5
##  2     2        142    16.1   -27.5
##  3     3        202    52.1   -27.5
##  4     4        220    49.6   -27.5
##  5     5        214   113.    -27.5
##  6     6        166    15.6   -27.5
##  7     7        217    17.6   -27.5
##  8     8        135    38.1   -27.5
##  9     9        126     5.79  -27.5
## 10    10        228    42.3   -27.5
## # ... with 2,458 more rows, and 18 more
## #   variables: long_to <dbl>,
## #   hastus_id <int>,
## #   translink_id <int>,
## #   description <chr>,
## #   street_name <chr>,
## #   nearest_cross_street <chr>,
## #   suburb <chr>, bus_stop_type <chr>,
## #   tactile_ground_surf_indicat_y_n <chr>,
…
---

# Facilities selected?

```r
mc_100$facility_selected
```

```
## [[1]]
## # A tibble: 100 x 7
##      lat  long street_name street_type
##    <dbl> <dbl> <chr>       <chr>      
##  1 -27.5  153. GLOUCESTER  Street     
##  2 -27.5  153. RUSK        Street     
##  3 -27.5  153. ARTHUR      Terrace    
##  4 -27.5  153. ASHBY       Street     
##  5 -27.4  153. BANCROFT    Street     
##  6 -27.5  153. BARKER      Street     
##  7 -27.5  153. BAROONA     Road       
##  8 -27.5  153. BAROONA     Road       
##  9 -27.5  153. DENGATE     Lane       
## 10 -27.5  153. BENT        Street     
## # ... with 90 more rows, and 3 more
## #   variables: suburb <chr>,
## #   postcode <int>, ward_name <chr>
```
…
